-- Merging decision tree log ---
application
INJECTED from C:\Users\AppCreate2\Desktop\Play\Maxima Play\app\src\main\AndroidManifest.xml:27:5-91:19
MERGED from [com.facebook.android:facebook-android-sdk:5.0.1] C:\Users\AppCreate2\.gradle\caches\transforms-2\files-2.1\4086a7aee382e5a5c3f3d1a485758ddd\AndroidManifest.xml:28:5-29:19
MERGED from [com.facebook.android:facebook-android-sdk:5.0.1] C:\Users\AppCreate2\.gradle\caches\transforms-2\files-2.1\4086a7aee382e5a5c3f3d1a485758ddd\AndroidManifest.xml:28:5-29:19
MERGED from [com.onesignal:OneSignal:3.10.9] C:\Users\AppCreate2\.gradle\caches\transforms-2\files-2.1\5930e716dc13da12cc7e2f315b263b14\AndroidManifest.xml:49:5-105:19
MERGED from [com.onesignal:OneSignal:3.10.9] C:\Users\AppCreate2\.gradle\caches\transforms-2\files-2.1\5930e716dc13da12cc7e2f315b263b14\AndroidManifest.xml:49:5-105:19
MERGED from [com.github.GoogleChrome.custom-tabs-client:customtabs:126c460] C:\Users\AppCreate2\.gradle\caches\transforms-2\files-2.1\6a8db20b6581ca6386702059b0ed0040\AndroidManifest.xml:22:5-23:19
MERGED from [com.github.GoogleChrome.custom-tabs-client:customtabs:126c460] C:\Users\AppCreate2\.gradle\caches\transforms-2\files-2.1\6a8db20b6581ca6386702059b0ed0040\AndroidManifest.xml:22:5-23:19
MERGED from [com.github.GoogleChrome.custom-tabs-client:shared:126c460] C:\Users\AppCreate2\.gradle\caches\transforms-2\files-2.1\552f550c3f41b5c1f5d710e1cb9c08ed\AndroidManifest.xml:26:5-20
MERGED from [com.github.GoogleChrome.custom-tabs-client:shared:126c460] C:\Users\AppCreate2\.gradle\caches\transforms-2\files-2.1\552f550c3f41b5c1f5d710e1cb9c08ed\AndroidManifest.xml:26:5-20
MERGED from [com.facebook.android:facebook-login:5.0.1] C:\Users\AppCreate2\.gradle\caches\transforms-2\files-2.1\f85ec407058747569a7d7bc663bae30a\AndroidManifest.xml:28:5-29:19
MERGED from [com.facebook.android:facebook-login:5.0.1] C:\Users\AppCreate2\.gradle\caches\transforms-2\files-2.1\f85ec407058747569a7d7bc663bae30a\AndroidManifest.xml:28:5-29:19
MERGED from [com.facebook.android:facebook-share:5.0.1] C:\Users\AppCreate2\.gradle\caches\transforms-2\files-2.1\a47d9bb9cdce2d5b7441545acc969b23\AndroidManifest.xml:28:5-29:19
MERGED from [com.facebook.android:facebook-share:5.0.1] C:\Users\AppCreate2\.gradle\caches\transforms-2\files-2.1\a47d9bb9cdce2d5b7441545acc969b23\AndroidManifest.xml:28:5-29:19
MERGED from [com.facebook.android:facebook-common:5.0.1] C:\Users\AppCreate2\.gradle\caches\transforms-2\files-2.1\6cf26a39b9d5f518d298ba2789714ee1\AndroidManifest.xml:28:5-35:19
MERGED from [com.facebook.android:facebook-common:5.0.1] C:\Users\AppCreate2\.gradle\caches\transforms-2\files-2.1\6cf26a39b9d5f518d298ba2789714ee1\AndroidManifest.xml:28:5-35:19
MERGED from [com.facebook.android:facebook-places:5.0.1] C:\Users\AppCreate2\.gradle\caches\transforms-2\files-2.1\1293483dfc6c44de7659e4deeb1db9a2\AndroidManifest.xml:28:5-29:19
MERGED from [com.facebook.android:facebook-places:5.0.1] C:\Users\AppCreate2\.gradle\caches\transforms-2\files-2.1\1293483dfc6c44de7659e4deeb1db9a2\AndroidManifest.xml:28:5-29:19
MERGED from [com.facebook.android:facebook-applinks:5.0.1] C:\Users\AppCreate2\.gradle\caches\transforms-2\files-2.1\1d92f51892fa6e838a2dcfbfbf989d1c\AndroidManifest.xml:28:5-29:19
MERGED from [com.facebook.android:facebook-applinks:5.0.1] C:\Users\AppCreate2\.gradle\caches\transforms-2\files-2.1\1d92f51892fa6e838a2dcfbfbf989d1c\AndroidManifest.xml:28:5-29:19
MERGED from [com.facebook.android:facebook-messenger:5.0.1] C:\Users\AppCreate2\.gradle\caches\transforms-2\files-2.1\f1034e9abab3f5278521616663499d2d\AndroidManifest.xml:28:5-29:19
MERGED from [com.facebook.android:facebook-messenger:5.0.1] C:\Users\AppCreate2\.gradle\caches\transforms-2\files-2.1\f1034e9abab3f5278521616663499d2d\AndroidManifest.xml:28:5-29:19
MERGED from [com.facebook.android:facebook-core:5.0.1] C:\Users\AppCreate2\.gradle\caches\transforms-2\files-2.1\8e693a95e2537504235d21123968caa4\AndroidManifest.xml:28:5-59:19
MERGED from [com.facebook.android:facebook-core:5.0.1] C:\Users\AppCreate2\.gradle\caches\transforms-2\files-2.1\8e693a95e2537504235d21123968caa4\AndroidManifest.xml:28:5-59:19
MERGED from [com.google.firebase:firebase-messaging:12.0.1] C:\Users\AppCreate2\.gradle\caches\transforms-2\files-2.1\ab0ff6420981b83daeafca5db7fbdf76\AndroidManifest.xml:22:5-35:19
MERGED from [com.google.firebase:firebase-messaging:12.0.1] C:\Users\AppCreate2\.gradle\caches\transforms-2\files-2.1\ab0ff6420981b83daeafca5db7fbdf76\AndroidManifest.xml:22:5-35:19
MERGED from [com.google.android.gms:play-services-location:12.0.1] C:\Users\AppCreate2\.gradle\caches\transforms-2\files-2.1\87c7dac7dcdda89343fc4e3ebd050845\AndroidManifest.xml:7:5-20
MERGED from [com.google.android.gms:play-services-location:12.0.1] C:\Users\AppCreate2\.gradle\caches\transforms-2\files-2.1\87c7dac7dcdda89343fc4e3ebd050845\AndroidManifest.xml:7:5-20
MERGED from [com.google.android.gms:play-services-base:12.0.1] C:\Users\AppCreate2\.gradle\caches\transforms-2\files-2.1\12c346d505adfb192c564b493ba30a9e\AndroidManifest.xml:22:5-27:19
MERGED from [com.google.android.gms:play-services-base:12.0.1] C:\Users\AppCreate2\.gradle\caches\transforms-2\files-2.1\12c346d505adfb192c564b493ba30a9e\AndroidManifest.xml:22:5-27:19
MERGED from [com.google.firebase:firebase-iid:12.0.1] C:\Users\AppCreate2\.gradle\caches\transforms-2\files-2.1\a261b4e4b7bd7cb2cea24a212af040b1\AndroidManifest.xml:34:5-57:19
MERGED from [com.google.firebase:firebase-iid:12.0.1] C:\Users\AppCreate2\.gradle\caches\transforms-2\files-2.1\a261b4e4b7bd7cb2cea24a212af040b1\AndroidManifest.xml:34:5-57:19
MERGED from [com.google.firebase:firebase-common:12.0.1] C:\Users\AppCreate2\.gradle\caches\transforms-2\files-2.1\11565ee4541234765d6759e14171aa6c\AndroidManifest.xml:7:5-13:19
MERGED from [com.google.firebase:firebase-common:12.0.1] C:\Users\AppCreate2\.gradle\caches\transforms-2\files-2.1\11565ee4541234765d6759e14171aa6c\AndroidManifest.xml:7:5-13:19
MERGED from [com.google.android.gms:play-services-tasks:12.0.1] C:\Users\AppCreate2\.gradle\caches\transforms-2\files-2.1\8147986cd8e3ab2587313b67ef17728d\AndroidManifest.xml:7:5-20
MERGED from [com.google.android.gms:play-services-tasks:12.0.1] C:\Users\AppCreate2\.gradle\caches\transforms-2\files-2.1\8147986cd8e3ab2587313b67ef17728d\AndroidManifest.xml:7:5-20
MERGED from [com.google.android.gms:play-services-basement:12.0.1] C:\Users\AppCreate2\.gradle\caches\transforms-2\files-2.1\fb55d954425ce843b8952ce936719d51\AndroidManifest.xml:22:5-26:19
MERGED from [com.google.android.gms:play-services-basement:12.0.1] C:\Users\AppCreate2\.gradle\caches\transforms-2\files-2.1\fb55d954425ce843b8952ce936719d51\AndroidManifest.xml:22:5-26:19
MERGED from [com.google.firebase:firebase-messaging-license:12.0.1] C:\Users\AppCreate2\.gradle\caches\transforms-2\files-2.1\e1a1e306155201867b5acfc191fdd5fc\AndroidManifest.xml:22:5-20
MERGED from [com.google.firebase:firebase-messaging-license:12.0.1] C:\Users\AppCreate2\.gradle\caches\transforms-2\files-2.1\e1a1e306155201867b5acfc191fdd5fc\AndroidManifest.xml:22:5-20
MERGED from [com.google.android.gms:play-services-location-license:12.0.1] C:\Users\AppCreate2\.gradle\caches\transforms-2\files-2.1\806d86a8f88f3added10fc0b429eabd5\AndroidManifest.xml:22:5-20
MERGED from [com.google.android.gms:play-services-location-license:12.0.1] C:\Users\AppCreate2\.gradle\caches\transforms-2\files-2.1\806d86a8f88f3added10fc0b429eabd5\AndroidManifest.xml:22:5-20
MERGED from [com.google.android.gms:play-services-base-license:12.0.1] C:\Users\AppCreate2\.gradle\caches\transforms-2\files-2.1\c5265e562adcf040d948f405bf3438df\AndroidManifest.xml:22:5-20
MERGED from [com.google.android.gms:play-services-base-license:12.0.1] C:\Users\AppCreate2\.gradle\caches\transforms-2\files-2.1\c5265e562adcf040d948f405bf3438df\AndroidManifest.xml:22:5-20
MERGED from [com.google.firebase:firebase-iid-license:12.0.1] C:\Users\AppCreate2\.gradle\caches\transforms-2\files-2.1\0f972ed2404ddaf28c29c4243de8c8f6\AndroidManifest.xml:22:5-20
MERGED from [com.google.firebase:firebase-iid-license:12.0.1] C:\Users\AppCreate2\.gradle\caches\transforms-2\files-2.1\0f972ed2404ddaf28c29c4243de8c8f6\AndroidManifest.xml:22:5-20
MERGED from [com.google.android.gms:play-services-basement-license:12.0.1] C:\Users\AppCreate2\.gradle\caches\transforms-2\files-2.1\a00d4d76d5c9e2c9ba330ba75a3713a3\AndroidManifest.xml:22:5-20
MERGED from [com.google.android.gms:play-services-basement-license:12.0.1] C:\Users\AppCreate2\.gradle\caches\transforms-2\files-2.1\a00d4d76d5c9e2c9ba330ba75a3713a3\AndroidManifest.xml:22:5-20
MERGED from [com.google.firebase:firebase-common-license:12.0.1] C:\Users\AppCreate2\.gradle\caches\transforms-2\files-2.1\6155a02c08276bbcd4be0d67fb33aa4e\AndroidManifest.xml:22:5-20
MERGED from [com.google.firebase:firebase-common-license:12.0.1] C:\Users\AppCreate2\.gradle\caches\transforms-2\files-2.1\6155a02c08276bbcd4be0d67fb33aa4e\AndroidManifest.xml:22:5-20
MERGED from [com.google.android.gms:play-services-tasks-license:12.0.1] C:\Users\AppCreate2\.gradle\caches\transforms-2\files-2.1\e2d477be2719bfca27ade53bca12f689\AndroidManifest.xml:22:5-20
MERGED from [com.google.android.gms:play-services-tasks-license:12.0.1] C:\Users\AppCreate2\.gradle\caches\transforms-2\files-2.1\e2d477be2719bfca27ade53bca12f689\AndroidManifest.xml:22:5-20
	android:supportsRtl
		ADDED from C:\Users\AppCreate2\Desktop\Play\Maxima Play\app\src\main\AndroidManifest.xml:32:9-35
	android:label
		INJECTED from C:\Users\AppCreate2\Desktop\Play\Maxima Play\app\src\main\AndroidManifest.xml
		ADDED from C:\Users\AppCreate2\Desktop\Play\Maxima Play\app\src\main\AndroidManifest.xml:31:9-40
	android:icon
		ADDED from C:\Users\AppCreate2\Desktop\Play\Maxima Play\app\src\main\AndroidManifest.xml:30:9-43
	android:allowBackup
		ADDED from C:\Users\AppCreate2\Desktop\Play\Maxima Play\app\src\main\AndroidManifest.xml:29:9-35
	android:theme
		ADDED from C:\Users\AppCreate2\Desktop\Play\Maxima Play\app\src\main\AndroidManifest.xml:33:9-47
	android:name
		ADDED from C:\Users\AppCreate2\Desktop\Play\Maxima Play\app\src\main\AndroidManifest.xml:28:9-40
meta-data#asset_statements
INJECTED from C:\Users\AppCreate2\Desktop\Play\Maxima Play\app\src\main\AndroidManifest.xml:39:9-41:50
	android:value
		INJECTED from C:\Users\AppCreate2\Desktop\Play\Maxima Play\app\src\main\AndroidManifest.xml
		ADDED from C:\Users\AppCreate2\Desktop\Play\Maxima Play\app\src\main\AndroidManifest.xml:41:13-47
	android:name
		ADDED from C:\Users\AppCreate2\Desktop\Play\Maxima Play\app\src\main\AndroidManifest.xml:40:13-44
activity#com.placeholder.MainActivity
INJECTED from C:\Users\AppCreate2\Desktop\Play\Maxima Play\app\src\main\AndroidManifest.xml:44:9-70:20
	android:label
		INJECTED from C:\Users\AppCreate2\Desktop\Play\Maxima Play\app\src\main\AndroidManifest.xml
		ADDED from C:\Users\AppCreate2\Desktop\Play\Maxima Play\app\src\main\AndroidManifest.xml:46:13-44
	android:launchMode
		ADDED from C:\Users\AppCreate2\Desktop\Play\Maxima Play\app\src\main\AndroidManifest.xml:47:13-43
	android:name
		ADDED from C:\Users\AppCreate2\Desktop\Play\Maxima Play\app\src\main\AndroidManifest.xml:45:13-56
meta-data#android.support.customtabs.trusted.DEFAULT_URL
INJECTED from C:\Users\AppCreate2\Desktop\Play\Maxima Play\app\src\main\AndroidManifest.xml:48:13-50:49
	android:value
		INJECTED from C:\Users\AppCreate2\Desktop\Play\Maxima Play\app\src\main\AndroidManifest.xml
		ADDED from C:\Users\AppCreate2\Desktop\Play\Maxima Play\app\src\main\AndroidManifest.xml:50:17-46
	android:name
		ADDED from C:\Users\AppCreate2\Desktop\Play\Maxima Play\app\src\main\AndroidManifest.xml:49:17-78
manifest
ADDED from C:\Users\AppCreate2\Desktop\Play\Maxima Play\app\src\main\AndroidManifest.xml:22:1-92:12
INJECTED from C:\Users\AppCreate2\Desktop\Play\Maxima Play\app\src\main\AndroidManifest.xml:22:1-92:12
INJECTED from C:\Users\AppCreate2\Desktop\Play\Maxima Play\app\src\main\AndroidManifest.xml:22:1-92:12
INJECTED from C:\Users\AppCreate2\Desktop\Play\Maxima Play\app\src\main\AndroidManifest.xml:22:1-92:12
MERGED from [com.facebook.android:facebook-android-sdk:5.0.1] C:\Users\AppCreate2\.gradle\caches\transforms-2\files-2.1\4086a7aee382e5a5c3f3d1a485758ddd\AndroidManifest.xml:21:1-31:12
MERGED from [com.onesignal:OneSignal:3.10.9] C:\Users\AppCreate2\.gradle\caches\transforms-2\files-2.1\5930e716dc13da12cc7e2f315b263b14\AndroidManifest.xml:2:1-107:12
MERGED from [com.android.support:multidex:1.0.3] C:\Users\AppCreate2\.gradle\caches\transforms-2\files-2.1\e1b6cfd268cf2327784948e2b1beb462\AndroidManifest.xml:17:1-22:12
MERGED from [com.github.GoogleChrome.custom-tabs-client:customtabs:126c460] C:\Users\AppCreate2\.gradle\caches\transforms-2\files-2.1\6a8db20b6581ca6386702059b0ed0040\AndroidManifest.xml:17:1-25:12
MERGED from [com.github.GoogleChrome.custom-tabs-client:shared:126c460] C:\Users\AppCreate2\.gradle\caches\transforms-2\files-2.1\552f550c3f41b5c1f5d710e1cb9c08ed\AndroidManifest.xml:17:1-28:12
MERGED from [com.facebook.android:facebook-login:5.0.1] C:\Users\AppCreate2\.gradle\caches\transforms-2\files-2.1\f85ec407058747569a7d7bc663bae30a\AndroidManifest.xml:21:1-31:12
MERGED from [com.facebook.android:facebook-share:5.0.1] C:\Users\AppCreate2\.gradle\caches\transforms-2\files-2.1\a47d9bb9cdce2d5b7441545acc969b23\AndroidManifest.xml:21:1-31:12
MERGED from [com.facebook.android:facebook-common:5.0.1] C:\Users\AppCreate2\.gradle\caches\transforms-2\files-2.1\6cf26a39b9d5f518d298ba2789714ee1\AndroidManifest.xml:21:1-37:12
MERGED from [com.facebook.android:facebook-places:5.0.1] C:\Users\AppCreate2\.gradle\caches\transforms-2\files-2.1\1293483dfc6c44de7659e4deeb1db9a2\AndroidManifest.xml:21:1-31:12
MERGED from [com.facebook.android:facebook-applinks:5.0.1] C:\Users\AppCreate2\.gradle\caches\transforms-2\files-2.1\1d92f51892fa6e838a2dcfbfbf989d1c\AndroidManifest.xml:21:1-31:12
MERGED from [com.facebook.android:facebook-messenger:5.0.1] C:\Users\AppCreate2\.gradle\caches\transforms-2\files-2.1\f1034e9abab3f5278521616663499d2d\AndroidManifest.xml:21:1-31:12
MERGED from [com.facebook.android:facebook-core:5.0.1] C:\Users\AppCreate2\.gradle\caches\transforms-2\files-2.1\8e693a95e2537504235d21123968caa4\AndroidManifest.xml:21:1-61:12
MERGED from [com.google.firebase:firebase-messaging:12.0.1] C:\Users\AppCreate2\.gradle\caches\transforms-2\files-2.1\ab0ff6420981b83daeafca5db7fbdf76\AndroidManifest.xml:17:1-37:12
MERGED from [com.google.android.gms:play-services-location:12.0.1] C:\Users\AppCreate2\.gradle\caches\transforms-2\files-2.1\87c7dac7dcdda89343fc4e3ebd050845\AndroidManifest.xml:2:1-9:12
MERGED from [com.google.android.gms:play-services-base:12.0.1] C:\Users\AppCreate2\.gradle\caches\transforms-2\files-2.1\12c346d505adfb192c564b493ba30a9e\AndroidManifest.xml:17:1-29:12
MERGED from [com.google.firebase:firebase-iid:12.0.1] C:\Users\AppCreate2\.gradle\caches\transforms-2\files-2.1\a261b4e4b7bd7cb2cea24a212af040b1\AndroidManifest.xml:17:1-59:12
MERGED from [com.google.firebase:firebase-common:12.0.1] C:\Users\AppCreate2\.gradle\caches\transforms-2\files-2.1\11565ee4541234765d6759e14171aa6c\AndroidManifest.xml:2:1-15:12
MERGED from [com.google.android.gms:play-services-tasks:12.0.1] C:\Users\AppCreate2\.gradle\caches\transforms-2\files-2.1\8147986cd8e3ab2587313b67ef17728d\AndroidManifest.xml:2:1-9:12
MERGED from [com.google.android.gms:play-services-basement:12.0.1] C:\Users\AppCreate2\.gradle\caches\transforms-2\files-2.1\fb55d954425ce843b8952ce936719d51\AndroidManifest.xml:17:1-28:12
MERGED from [com.android.support:support-v4:27.0.2] C:\Users\AppCreate2\.gradle\caches\transforms-2\files-2.1\6a075ba1b06c2c92b95e0fc39e6618fd\AndroidManifest.xml:17:1-22:12
MERGED from [com.android.support:appcompat-v7:27.0.2] C:\Users\AppCreate2\.gradle\caches\transforms-2\files-2.1\7373cb41dc965899e3204aed9fa4f5bd\AndroidManifest.xml:17:1-22:12
MERGED from [com.android.support:support-fragment:27.0.2] C:\Users\AppCreate2\.gradle\caches\transforms-2\files-2.1\2e9f1e6a3749b3cbac9319b900d80d98\AndroidManifest.xml:17:1-22:12
MERGED from [com.android.support:animated-vector-drawable:27.0.2] C:\Users\AppCreate2\.gradle\caches\transforms-2\files-2.1\252e0b73ce1141288cc9520a74c32e6c\AndroidManifest.xml:17:1-22:12
MERGED from [com.android.support:support-core-ui:27.0.2] C:\Users\AppCreate2\.gradle\caches\transforms-2\files-2.1\42a0cb308922a31cd184d1e77ff378d0\AndroidManifest.xml:17:1-22:12
MERGED from [com.android.support:support-core-utils:27.0.2] C:\Users\AppCreate2\.gradle\caches\transforms-2\files-2.1\ea889e1670528d7bcdc970e77e18523e\AndroidManifest.xml:17:1-22:12
MERGED from [com.android.support:cardview-v7:27.0.2] C:\Users\AppCreate2\.gradle\caches\transforms-2\files-2.1\37bed6f6417e31b72745e0561e05ca65\AndroidManifest.xml:17:1-22:12
MERGED from [com.android.support:support-media-compat:27.0.2] C:\Users\AppCreate2\.gradle\caches\transforms-2\files-2.1\8f9a8e279cd769de6c74e778069d7025\AndroidManifest.xml:17:1-22:12
MERGED from [com.android.support:support-vector-drawable:27.0.2] C:\Users\AppCreate2\.gradle\caches\transforms-2\files-2.1\f56307c6fae057335dba035e6fad521a\AndroidManifest.xml:17:1-22:12
MERGED from [com.android.support:support-compat:27.0.2] C:\Users\AppCreate2\.gradle\caches\transforms-2\files-2.1\c3784078d4ec1d603ac7cdc86acc0da5\AndroidManifest.xml:17:1-22:12
MERGED from [com.google.firebase:firebase-messaging-license:12.0.1] C:\Users\AppCreate2\.gradle\caches\transforms-2\files-2.1\e1a1e306155201867b5acfc191fdd5fc\AndroidManifest.xml:17:1-24:12
MERGED from [com.google.android.gms:play-services-location-license:12.0.1] C:\Users\AppCreate2\.gradle\caches\transforms-2\files-2.1\806d86a8f88f3added10fc0b429eabd5\AndroidManifest.xml:17:1-24:12
MERGED from [com.google.android.gms:play-services-base-license:12.0.1] C:\Users\AppCreate2\.gradle\caches\transforms-2\files-2.1\c5265e562adcf040d948f405bf3438df\AndroidManifest.xml:17:1-24:12
MERGED from [com.google.firebase:firebase-iid-license:12.0.1] C:\Users\AppCreate2\.gradle\caches\transforms-2\files-2.1\0f972ed2404ddaf28c29c4243de8c8f6\AndroidManifest.xml:17:1-24:12
MERGED from [com.google.android.gms:play-services-basement-license:12.0.1] C:\Users\AppCreate2\.gradle\caches\transforms-2\files-2.1\a00d4d76d5c9e2c9ba330ba75a3713a3\AndroidManifest.xml:17:1-24:12
MERGED from [com.google.firebase:firebase-common-license:12.0.1] C:\Users\AppCreate2\.gradle\caches\transforms-2\files-2.1\6155a02c08276bbcd4be0d67fb33aa4e\AndroidManifest.xml:17:1-24:12
MERGED from [android.arch.lifecycle:runtime:1.0.3] C:\Users\AppCreate2\.gradle\caches\transforms-2\files-2.1\3bb66cb1fbd4151b3892cdf20a123989\AndroidManifest.xml:17:1-24:12
MERGED from [com.google.android.gms:play-services-tasks-license:12.0.1] C:\Users\AppCreate2\.gradle\caches\transforms-2\files-2.1\e2d477be2719bfca27ade53bca12f689\AndroidManifest.xml:17:1-24:12
INJECTED from C:\Users\AppCreate2\Desktop\Play\Maxima Play\app\src\main\AndroidManifest.xml:22:1-92:12
INJECTED from C:\Users\AppCreate2\Desktop\Play\Maxima Play\app\src\main\AndroidManifest.xml:22:1-92:12
INJECTED from C:\Users\AppCreate2\Desktop\Play\Maxima Play\app\src\main\AndroidManifest.xml:22:1-92:12
	package
		ADDED from C:\Users\AppCreate2\Desktop\Play\Maxima Play\app\src\main\AndroidManifest.xml:23:5-30
		INJECTED from C:\Users\AppCreate2\Desktop\Play\Maxima Play\app\src\main\AndroidManifest.xml
		INJECTED from C:\Users\AppCreate2\Desktop\Play\Maxima Play\app\src\main\AndroidManifest.xml
	android:versionName
		INJECTED from C:\Users\AppCreate2\Desktop\Play\Maxima Play\app\src\main\AndroidManifest.xml
		ADDED from C:\Users\AppCreate2\Desktop\Play\Maxima Play\app\src\main\AndroidManifest.xml:22:1-92:12
		INJECTED from C:\Users\AppCreate2\Desktop\Play\Maxima Play\app\src\main\AndroidManifest.xml
	android:versionCode
		INJECTED from C:\Users\AppCreate2\Desktop\Play\Maxima Play\app\src\main\AndroidManifest.xml
		ADDED from C:\Users\AppCreate2\Desktop\Play\Maxima Play\app\src\main\AndroidManifest.xml:22:1-92:12
		INJECTED from C:\Users\AppCreate2\Desktop\Play\Maxima Play\app\src\main\AndroidManifest.xml
	xmlns:android
		ADDED from C:\Users\AppCreate2\Desktop\Play\Maxima Play\app\src\main\AndroidManifest.xml:22:11-69
uses-permission#android.permission.INTERNET
ADDED from C:\Users\AppCreate2\Desktop\Play\Maxima Play\app\src\main\AndroidManifest.xml:25:5-67
MERGED from [com.onesignal:OneSignal:3.10.9] C:\Users\AppCreate2\.gradle\caches\transforms-2\files-2.1\5930e716dc13da12cc7e2f315b263b14\AndroidManifest.xml:17:5-67
MERGED from [com.onesignal:OneSignal:3.10.9] C:\Users\AppCreate2\.gradle\caches\transforms-2\files-2.1\5930e716dc13da12cc7e2f315b263b14\AndroidManifest.xml:17:5-67
MERGED from [com.google.firebase:firebase-iid:12.0.1] C:\Users\AppCreate2\.gradle\caches\transforms-2\files-2.1\a261b4e4b7bd7cb2cea24a212af040b1\AndroidManifest.xml:23:5-67
MERGED from [com.google.firebase:firebase-iid:12.0.1] C:\Users\AppCreate2\.gradle\caches\transforms-2\files-2.1\a261b4e4b7bd7cb2cea24a212af040b1\AndroidManifest.xml:23:5-67
	android:name
		ADDED from C:\Users\AppCreate2\Desktop\Play\Maxima Play\app\src\main\AndroidManifest.xml:25:22-64
uses-sdk
INJECTED from C:\Users\AppCreate2\Desktop\Play\Maxima Play\app\src\main\AndroidManifest.xml reason: use-sdk injection requested
INJECTED from C:\Users\AppCreate2\Desktop\Play\Maxima Play\app\src\main\AndroidManifest.xml
INJECTED from C:\Users\AppCreate2\Desktop\Play\Maxima Play\app\src\main\AndroidManifest.xml
MERGED from [com.facebook.android:facebook-android-sdk:5.0.1] C:\Users\AppCreate2\.gradle\caches\transforms-2\files-2.1\4086a7aee382e5a5c3f3d1a485758ddd\AndroidManifest.xml:24:5-26:41
MERGED from [com.facebook.android:facebook-android-sdk:5.0.1] C:\Users\AppCreate2\.gradle\caches\transforms-2\files-2.1\4086a7aee382e5a5c3f3d1a485758ddd\AndroidManifest.xml:24:5-26:41
MERGED from [com.onesignal:OneSignal:3.10.9] C:\Users\AppCreate2\.gradle\caches\transforms-2\files-2.1\5930e716dc13da12cc7e2f315b263b14\AndroidManifest.xml:5:5-44
MERGED from [com.onesignal:OneSignal:3.10.9] C:\Users\AppCreate2\.gradle\caches\transforms-2\files-2.1\5930e716dc13da12cc7e2f315b263b14\AndroidManifest.xml:5:5-44
MERGED from [com.android.support:multidex:1.0.3] C:\Users\AppCreate2\.gradle\caches\transforms-2\files-2.1\e1b6cfd268cf2327784948e2b1beb462\AndroidManifest.xml:20:5-43
MERGED from [com.android.support:multidex:1.0.3] C:\Users\AppCreate2\.gradle\caches\transforms-2\files-2.1\e1b6cfd268cf2327784948e2b1beb462\AndroidManifest.xml:20:5-43
MERGED from [com.github.GoogleChrome.custom-tabs-client:customtabs:126c460] C:\Users\AppCreate2\.gradle\caches\transforms-2\files-2.1\6a8db20b6581ca6386702059b0ed0040\AndroidManifest.xml:20:5-44
MERGED from [com.github.GoogleChrome.custom-tabs-client:customtabs:126c460] C:\Users\AppCreate2\.gradle\caches\transforms-2\files-2.1\6a8db20b6581ca6386702059b0ed0040\AndroidManifest.xml:20:5-44
MERGED from [com.github.GoogleChrome.custom-tabs-client:shared:126c460] C:\Users\AppCreate2\.gradle\caches\transforms-2\files-2.1\552f550c3f41b5c1f5d710e1cb9c08ed\AndroidManifest.xml:22:5-24:41
MERGED from [com.github.GoogleChrome.custom-tabs-client:shared:126c460] C:\Users\AppCreate2\.gradle\caches\transforms-2\files-2.1\552f550c3f41b5c1f5d710e1cb9c08ed\AndroidManifest.xml:22:5-24:41
MERGED from [com.facebook.android:facebook-login:5.0.1] C:\Users\AppCreate2\.gradle\caches\transforms-2\files-2.1\f85ec407058747569a7d7bc663bae30a\AndroidManifest.xml:24:5-26:41
MERGED from [com.facebook.android:facebook-login:5.0.1] C:\Users\AppCreate2\.gradle\caches\transforms-2\files-2.1\f85ec407058747569a7d7bc663bae30a\AndroidManifest.xml:24:5-26:41
MERGED from [com.facebook.android:facebook-share:5.0.1] C:\Users\AppCreate2\.gradle\caches\transforms-2\files-2.1\a47d9bb9cdce2d5b7441545acc969b23\AndroidManifest.xml:24:5-26:41
MERGED from [com.facebook.android:facebook-share:5.0.1] C:\Users\AppCreate2\.gradle\caches\transforms-2\files-2.1\a47d9bb9cdce2d5b7441545acc969b23\AndroidManifest.xml:24:5-26:41
MERGED from [com.facebook.android:facebook-common:5.0.1] C:\Users\AppCreate2\.gradle\caches\transforms-2\files-2.1\6cf26a39b9d5f518d298ba2789714ee1\AndroidManifest.xml:24:5-26:41
MERGED from [com.facebook.android:facebook-common:5.0.1] C:\Users\AppCreate2\.gradle\caches\transforms-2\files-2.1\6cf26a39b9d5f518d298ba2789714ee1\AndroidManifest.xml:24:5-26:41
MERGED from [com.facebook.android:facebook-places:5.0.1] C:\Users\AppCreate2\.gradle\caches\transforms-2\files-2.1\1293483dfc6c44de7659e4deeb1db9a2\AndroidManifest.xml:24:5-26:41
MERGED from [com.facebook.android:facebook-places:5.0.1] C:\Users\AppCreate2\.gradle\caches\transforms-2\files-2.1\1293483dfc6c44de7659e4deeb1db9a2\AndroidManifest.xml:24:5-26:41
MERGED from [com.facebook.android:facebook-applinks:5.0.1] C:\Users\AppCreate2\.gradle\caches\transforms-2\files-2.1\1d92f51892fa6e838a2dcfbfbf989d1c\AndroidManifest.xml:24:5-26:41
MERGED from [com.facebook.android:facebook-applinks:5.0.1] C:\Users\AppCreate2\.gradle\caches\transforms-2\files-2.1\1d92f51892fa6e838a2dcfbfbf989d1c\AndroidManifest.xml:24:5-26:41
MERGED from [com.facebook.android:facebook-messenger:5.0.1] C:\Users\AppCreate2\.gradle\caches\transforms-2\files-2.1\f1034e9abab3f5278521616663499d2d\AndroidManifest.xml:24:5-26:41
MERGED from [com.facebook.android:facebook-messenger:5.0.1] C:\Users\AppCreate2\.gradle\caches\transforms-2\files-2.1\f1034e9abab3f5278521616663499d2d\AndroidManifest.xml:24:5-26:41
MERGED from [com.facebook.android:facebook-core:5.0.1] C:\Users\AppCreate2\.gradle\caches\transforms-2\files-2.1\8e693a95e2537504235d21123968caa4\AndroidManifest.xml:24:5-26:41
MERGED from [com.facebook.android:facebook-core:5.0.1] C:\Users\AppCreate2\.gradle\caches\transforms-2\files-2.1\8e693a95e2537504235d21123968caa4\AndroidManifest.xml:24:5-26:41
MERGED from [com.google.firebase:firebase-messaging:12.0.1] C:\Users\AppCreate2\.gradle\caches\transforms-2\files-2.1\ab0ff6420981b83daeafca5db7fbdf76\AndroidManifest.xml:20:5-44
MERGED from [com.google.firebase:firebase-messaging:12.0.1] C:\Users\AppCreate2\.gradle\caches\transforms-2\files-2.1\ab0ff6420981b83daeafca5db7fbdf76\AndroidManifest.xml:20:5-44
MERGED from [com.google.android.gms:play-services-location:12.0.1] C:\Users\AppCreate2\.gradle\caches\transforms-2\files-2.1\87c7dac7dcdda89343fc4e3ebd050845\AndroidManifest.xml:5:5-44
MERGED from [com.google.android.gms:play-services-location:12.0.1] C:\Users\AppCreate2\.gradle\caches\transforms-2\files-2.1\87c7dac7dcdda89343fc4e3ebd050845\AndroidManifest.xml:5:5-44
MERGED from [com.google.android.gms:play-services-base:12.0.1] C:\Users\AppCreate2\.gradle\caches\transforms-2\files-2.1\12c346d505adfb192c564b493ba30a9e\AndroidManifest.xml:20:5-44
MERGED from [com.google.android.gms:play-services-base:12.0.1] C:\Users\AppCreate2\.gradle\caches\transforms-2\files-2.1\12c346d505adfb192c564b493ba30a9e\AndroidManifest.xml:20:5-44
MERGED from [com.google.firebase:firebase-iid:12.0.1] C:\Users\AppCreate2\.gradle\caches\transforms-2\files-2.1\a261b4e4b7bd7cb2cea24a212af040b1\AndroidManifest.xml:20:5-44
MERGED from [com.google.firebase:firebase-iid:12.0.1] C:\Users\AppCreate2\.gradle\caches\transforms-2\files-2.1\a261b4e4b7bd7cb2cea24a212af040b1\AndroidManifest.xml:20:5-44
MERGED from [com.google.firebase:firebase-common:12.0.1] C:\Users\AppCreate2\.gradle\caches\transforms-2\files-2.1\11565ee4541234765d6759e14171aa6c\AndroidManifest.xml:5:5-44
MERGED from [com.google.firebase:firebase-common:12.0.1] C:\Users\AppCreate2\.gradle\caches\transforms-2\files-2.1\11565ee4541234765d6759e14171aa6c\AndroidManifest.xml:5:5-44
MERGED from [com.google.android.gms:play-services-tasks:12.0.1] C:\Users\AppCreate2\.gradle\caches\transforms-2\files-2.1\8147986cd8e3ab2587313b67ef17728d\AndroidManifest.xml:5:5-44
MERGED from [com.google.android.gms:play-services-tasks:12.0.1] C:\Users\AppCreate2\.gradle\caches\transforms-2\files-2.1\8147986cd8e3ab2587313b67ef17728d\AndroidManifest.xml:5:5-44
MERGED from [com.google.android.gms:play-services-basement:12.0.1] C:\Users\AppCreate2\.gradle\caches\transforms-2\files-2.1\fb55d954425ce843b8952ce936719d51\AndroidManifest.xml:20:5-44
MERGED from [com.google.android.gms:play-services-basement:12.0.1] C:\Users\AppCreate2\.gradle\caches\transforms-2\files-2.1\fb55d954425ce843b8952ce936719d51\AndroidManifest.xml:20:5-44
MERGED from [com.android.support:support-v4:27.0.2] C:\Users\AppCreate2\.gradle\caches\transforms-2\files-2.1\6a075ba1b06c2c92b95e0fc39e6618fd\AndroidManifest.xml:20:5-44
MERGED from [com.android.support:support-v4:27.0.2] C:\Users\AppCreate2\.gradle\caches\transforms-2\files-2.1\6a075ba1b06c2c92b95e0fc39e6618fd\AndroidManifest.xml:20:5-44
MERGED from [com.android.support:appcompat-v7:27.0.2] C:\Users\AppCreate2\.gradle\caches\transforms-2\files-2.1\7373cb41dc965899e3204aed9fa4f5bd\AndroidManifest.xml:20:5-44
MERGED from [com.android.support:appcompat-v7:27.0.2] C:\Users\AppCreate2\.gradle\caches\transforms-2\files-2.1\7373cb41dc965899e3204aed9fa4f5bd\AndroidManifest.xml:20:5-44
MERGED from [com.android.support:support-fragment:27.0.2] C:\Users\AppCreate2\.gradle\caches\transforms-2\files-2.1\2e9f1e6a3749b3cbac9319b900d80d98\AndroidManifest.xml:20:5-44
MERGED from [com.android.support:support-fragment:27.0.2] C:\Users\AppCreate2\.gradle\caches\transforms-2\files-2.1\2e9f1e6a3749b3cbac9319b900d80d98\AndroidManifest.xml:20:5-44
MERGED from [com.android.support:animated-vector-drawable:27.0.2] C:\Users\AppCreate2\.gradle\caches\transforms-2\files-2.1\252e0b73ce1141288cc9520a74c32e6c\AndroidManifest.xml:20:5-44
MERGED from [com.android.support:animated-vector-drawable:27.0.2] C:\Users\AppCreate2\.gradle\caches\transforms-2\files-2.1\252e0b73ce1141288cc9520a74c32e6c\AndroidManifest.xml:20:5-44
MERGED from [com.android.support:support-core-ui:27.0.2] C:\Users\AppCreate2\.gradle\caches\transforms-2\files-2.1\42a0cb308922a31cd184d1e77ff378d0\AndroidManifest.xml:20:5-44
MERGED from [com.android.support:support-core-ui:27.0.2] C:\Users\AppCreate2\.gradle\caches\transforms-2\files-2.1\42a0cb308922a31cd184d1e77ff378d0\AndroidManifest.xml:20:5-44
MERGED from [com.android.support:support-core-utils:27.0.2] C:\Users\AppCreate2\.gradle\caches\transforms-2\files-2.1\ea889e1670528d7bcdc970e77e18523e\AndroidManifest.xml:20:5-44
MERGED from [com.android.support:support-core-utils:27.0.2] C:\Users\AppCreate2\.gradle\caches\transforms-2\files-2.1\ea889e1670528d7bcdc970e77e18523e\AndroidManifest.xml:20:5-44
MERGED from [com.android.support:cardview-v7:27.0.2] C:\Users\AppCreate2\.gradle\caches\transforms-2\files-2.1\37bed6f6417e31b72745e0561e05ca65\AndroidManifest.xml:20:5-44
MERGED from [com.android.support:cardview-v7:27.0.2] C:\Users\AppCreate2\.gradle\caches\transforms-2\files-2.1\37bed6f6417e31b72745e0561e05ca65\AndroidManifest.xml:20:5-44
MERGED from [com.android.support:support-media-compat:27.0.2] C:\Users\AppCreate2\.gradle\caches\transforms-2\files-2.1\8f9a8e279cd769de6c74e778069d7025\AndroidManifest.xml:20:5-44
MERGED from [com.android.support:support-media-compat:27.0.2] C:\Users\AppCreate2\.gradle\caches\transforms-2\files-2.1\8f9a8e279cd769de6c74e778069d7025\AndroidManifest.xml:20:5-44
MERGED from [com.android.support:support-vector-drawable:27.0.2] C:\Users\AppCreate2\.gradle\caches\transforms-2\files-2.1\f56307c6fae057335dba035e6fad521a\AndroidManifest.xml:20:5-44
MERGED from [com.android.support:support-vector-drawable:27.0.2] C:\Users\AppCreate2\.gradle\caches\transforms-2\files-2.1\f56307c6fae057335dba035e6fad521a\AndroidManifest.xml:20:5-44
MERGED from [com.android.support:support-compat:27.0.2] C:\Users\AppCreate2\.gradle\caches\transforms-2\files-2.1\c3784078d4ec1d603ac7cdc86acc0da5\AndroidManifest.xml:20:5-44
MERGED from [com.android.support:support-compat:27.0.2] C:\Users\AppCreate2\.gradle\caches\transforms-2\files-2.1\c3784078d4ec1d603ac7cdc86acc0da5\AndroidManifest.xml:20:5-44
MERGED from [com.google.firebase:firebase-messaging-license:12.0.1] C:\Users\AppCreate2\.gradle\caches\transforms-2\files-2.1\e1a1e306155201867b5acfc191fdd5fc\AndroidManifest.xml:20:5-44
MERGED from [com.google.firebase:firebase-messaging-license:12.0.1] C:\Users\AppCreate2\.gradle\caches\transforms-2\files-2.1\e1a1e306155201867b5acfc191fdd5fc\AndroidManifest.xml:20:5-44
MERGED from [com.google.android.gms:play-services-location-license:12.0.1] C:\Users\AppCreate2\.gradle\caches\transforms-2\files-2.1\806d86a8f88f3added10fc0b429eabd5\AndroidManifest.xml:20:5-44
MERGED from [com.google.android.gms:play-services-location-license:12.0.1] C:\Users\AppCreate2\.gradle\caches\transforms-2\files-2.1\806d86a8f88f3added10fc0b429eabd5\AndroidManifest.xml:20:5-44
MERGED from [com.google.android.gms:play-services-base-license:12.0.1] C:\Users\AppCreate2\.gradle\caches\transforms-2\files-2.1\c5265e562adcf040d948f405bf3438df\AndroidManifest.xml:20:5-44
MERGED from [com.google.android.gms:play-services-base-license:12.0.1] C:\Users\AppCreate2\.gradle\caches\transforms-2\files-2.1\c5265e562adcf040d948f405bf3438df\AndroidManifest.xml:20:5-44
MERGED from [com.google.firebase:firebase-iid-license:12.0.1] C:\Users\AppCreate2\.gradle\caches\transforms-2\files-2.1\0f972ed2404ddaf28c29c4243de8c8f6\AndroidManifest.xml:20:5-44
MERGED from [com.google.firebase:firebase-iid-license:12.0.1] C:\Users\AppCreate2\.gradle\caches\transforms-2\files-2.1\0f972ed2404ddaf28c29c4243de8c8f6\AndroidManifest.xml:20:5-44
MERGED from [com.google.android.gms:play-services-basement-license:12.0.1] C:\Users\AppCreate2\.gradle\caches\transforms-2\files-2.1\a00d4d76d5c9e2c9ba330ba75a3713a3\AndroidManifest.xml:20:5-44
MERGED from [com.google.android.gms:play-services-basement-license:12.0.1] C:\Users\AppCreate2\.gradle\caches\transforms-2\files-2.1\a00d4d76d5c9e2c9ba330ba75a3713a3\AndroidManifest.xml:20:5-44
MERGED from [com.google.firebase:firebase-common-license:12.0.1] C:\Users\AppCreate2\.gradle\caches\transforms-2\files-2.1\6155a02c08276bbcd4be0d67fb33aa4e\AndroidManifest.xml:20:5-44
MERGED from [com.google.firebase:firebase-common-license:12.0.1] C:\Users\AppCreate2\.gradle\caches\transforms-2\files-2.1\6155a02c08276bbcd4be0d67fb33aa4e\AndroidManifest.xml:20:5-44
MERGED from [android.arch.lifecycle:runtime:1.0.3] C:\Users\AppCreate2\.gradle\caches\transforms-2\files-2.1\3bb66cb1fbd4151b3892cdf20a123989\AndroidManifest.xml:20:5-22:41
MERGED from [android.arch.lifecycle:runtime:1.0.3] C:\Users\AppCreate2\.gradle\caches\transforms-2\files-2.1\3bb66cb1fbd4151b3892cdf20a123989\AndroidManifest.xml:20:5-22:41
MERGED from [com.google.android.gms:play-services-tasks-license:12.0.1] C:\Users\AppCreate2\.gradle\caches\transforms-2\files-2.1\e2d477be2719bfca27ade53bca12f689\AndroidManifest.xml:20:5-44
MERGED from [com.google.android.gms:play-services-tasks-license:12.0.1] C:\Users\AppCreate2\.gradle\caches\transforms-2\files-2.1\e2d477be2719bfca27ade53bca12f689\AndroidManifest.xml:20:5-44
INJECTED from C:\Users\AppCreate2\Desktop\Play\Maxima Play\app\src\main\AndroidManifest.xml
INJECTED from C:\Users\AppCreate2\Desktop\Play\Maxima Play\app\src\main\AndroidManifest.xml
	android:targetSdkVersion
		INJECTED from C:\Users\AppCreate2\Desktop\Play\Maxima Play\app\src\main\AndroidManifest.xml
		ADDED from C:\Users\AppCreate2\Desktop\Play\Maxima Play\app\src\main\AndroidManifest.xml
		INJECTED from C:\Users\AppCreate2\Desktop\Play\Maxima Play\app\src\main\AndroidManifest.xml
	android:minSdkVersion
		INJECTED from C:\Users\AppCreate2\Desktop\Play\Maxima Play\app\src\main\AndroidManifest.xml
		ADDED from C:\Users\AppCreate2\Desktop\Play\Maxima Play\app\src\main\AndroidManifest.xml
		INJECTED from C:\Users\AppCreate2\Desktop\Play\Maxima Play\app\src\main\AndroidManifest.xml
meta-data#com.facebook.sdk.ApplicationId
ADDED from C:\Users\AppCreate2\Desktop\Play\Maxima Play\app\src\main\AndroidManifest.xml:35:9-37:55
	android:value
		ADDED from C:\Users\AppCreate2\Desktop\Play\Maxima Play\app\src\main\AndroidManifest.xml:37:13-52
	android:name
		ADDED from C:\Users\AppCreate2\Desktop\Play\Maxima Play\app\src\main\AndroidManifest.xml:36:13-58
intent-filter#action:name:android.intent.action.MAIN+category:name:android.intent.category.LAUNCHER
ADDED from C:\Users\AppCreate2\Desktop\Play\Maxima Play\app\src\main\AndroidManifest.xml:54:13-57:29
action#android.intent.action.MAIN
ADDED from C:\Users\AppCreate2\Desktop\Play\Maxima Play\app\src\main\AndroidManifest.xml:55:17-69
	android:name
		ADDED from C:\Users\AppCreate2\Desktop\Play\Maxima Play\app\src\main\AndroidManifest.xml:55:25-66
category#android.intent.category.LAUNCHER
ADDED from C:\Users\AppCreate2\Desktop\Play\Maxima Play\app\src\main\AndroidManifest.xml:56:17-77
	android:name
		ADDED from C:\Users\AppCreate2\Desktop\Play\Maxima Play\app\src\main\AndroidManifest.xml:56:27-74
intent-filter#action:name:android.intent.action.VIEW+category:name:android.intent.category.BROWSABLE+category:name:android.intent.category.DEFAULT+data:host:open.my.app+data:scheme:app
ADDED from C:\Users\AppCreate2\Desktop\Play\Maxima Play\app\src\main\AndroidManifest.xml:59:13-68:29
action#android.intent.action.VIEW
ADDED from C:\Users\AppCreate2\Desktop\Play\Maxima Play\app\src\main\AndroidManifest.xml:60:17-69
	android:name
		ADDED from C:\Users\AppCreate2\Desktop\Play\Maxima Play\app\src\main\AndroidManifest.xml:60:25-66
category#android.intent.category.DEFAULT
ADDED from C:\Users\AppCreate2\Desktop\Play\Maxima Play\app\src\main\AndroidManifest.xml:62:17-76
	android:name
		ADDED from C:\Users\AppCreate2\Desktop\Play\Maxima Play\app\src\main\AndroidManifest.xml:62:27-73
category#android.intent.category.BROWSABLE
ADDED from C:\Users\AppCreate2\Desktop\Play\Maxima Play\app\src\main\AndroidManifest.xml:63:17-78
	android:name
		ADDED from C:\Users\AppCreate2\Desktop\Play\Maxima Play\app\src\main\AndroidManifest.xml:63:27-75
data
ADDED from C:\Users\AppCreate2\Desktop\Play\Maxima Play\app\src\main\AndroidManifest.xml:66:17-67:49
	android:host
		ADDED from C:\Users\AppCreate2\Desktop\Play\Maxima Play\app\src\main\AndroidManifest.xml:67:21-47
	android:scheme
		ADDED from C:\Users\AppCreate2\Desktop\Play\Maxima Play\app\src\main\AndroidManifest.xml:66:23-43
permission#${applicationId}.permission.C2D_MESSAGE
ADDED from [com.onesignal:OneSignal:3.10.9] C:\Users\AppCreate2\.gradle\caches\transforms-2\files-2.1\5930e716dc13da12cc7e2f315b263b14\AndroidManifest.xml:8:5-10:47
MERGED from [com.google.firebase:firebase-iid:12.0.1] C:\Users\AppCreate2\.gradle\caches\transforms-2\files-2.1\a261b4e4b7bd7cb2cea24a212af040b1\AndroidManifest.xml:28:5-30:47
MERGED from [com.google.firebase:firebase-iid:12.0.1] C:\Users\AppCreate2\.gradle\caches\transforms-2\files-2.1\a261b4e4b7bd7cb2cea24a212af040b1\AndroidManifest.xml:28:5-30:47
	android:protectionLevel
		ADDED from [com.onesignal:OneSignal:3.10.9] C:\Users\AppCreate2\.gradle\caches\transforms-2\files-2.1\5930e716dc13da12cc7e2f315b263b14\AndroidManifest.xml:10:9-44
	android:name
		ADDED from [com.onesignal:OneSignal:3.10.9] C:\Users\AppCreate2\.gradle\caches\transforms-2\files-2.1\5930e716dc13da12cc7e2f315b263b14\AndroidManifest.xml:9:9-63
permission#xyz.appmaker.rribqe.permission.C2D_MESSAGE
ADDED from [com.onesignal:OneSignal:3.10.9] C:\Users\AppCreate2\.gradle\caches\transforms-2\files-2.1\5930e716dc13da12cc7e2f315b263b14\AndroidManifest.xml:8:5-10:47
MERGED from [com.google.firebase:firebase-iid:12.0.1] C:\Users\AppCreate2\.gradle\caches\transforms-2\files-2.1\a261b4e4b7bd7cb2cea24a212af040b1\AndroidManifest.xml:28:5-30:47
MERGED from [com.google.firebase:firebase-iid:12.0.1] C:\Users\AppCreate2\.gradle\caches\transforms-2\files-2.1\a261b4e4b7bd7cb2cea24a212af040b1\AndroidManifest.xml:28:5-30:47
	android:protectionLevel
		ADDED from [com.onesignal:OneSignal:3.10.9] C:\Users\AppCreate2\.gradle\caches\transforms-2\files-2.1\5930e716dc13da12cc7e2f315b263b14\AndroidManifest.xml:10:9-44
	android:name
		ADDED from [com.onesignal:OneSignal:3.10.9] C:\Users\AppCreate2\.gradle\caches\transforms-2\files-2.1\5930e716dc13da12cc7e2f315b263b14\AndroidManifest.xml:9:9-63
uses-permission#${applicationId}.permission.C2D_MESSAGE
ADDED from [com.onesignal:OneSignal:3.10.9] C:\Users\AppCreate2\.gradle\caches\transforms-2\files-2.1\5930e716dc13da12cc7e2f315b263b14\AndroidManifest.xml:12:5-79
MERGED from [com.google.firebase:firebase-iid:12.0.1] C:\Users\AppCreate2\.gradle\caches\transforms-2\files-2.1\a261b4e4b7bd7cb2cea24a212af040b1\AndroidManifest.xml:32:5-79
MERGED from [com.google.firebase:firebase-iid:12.0.1] C:\Users\AppCreate2\.gradle\caches\transforms-2\files-2.1\a261b4e4b7bd7cb2cea24a212af040b1\AndroidManifest.xml:32:5-79
	android:name
		ADDED from [com.onesignal:OneSignal:3.10.9] C:\Users\AppCreate2\.gradle\caches\transforms-2\files-2.1\5930e716dc13da12cc7e2f315b263b14\AndroidManifest.xml:12:22-76
uses-permission#xyz.appmaker.rribqe.permission.C2D_MESSAGE
ADDED from [com.onesignal:OneSignal:3.10.9] C:\Users\AppCreate2\.gradle\caches\transforms-2\files-2.1\5930e716dc13da12cc7e2f315b263b14\AndroidManifest.xml:12:5-79
MERGED from [com.google.firebase:firebase-iid:12.0.1] C:\Users\AppCreate2\.gradle\caches\transforms-2\files-2.1\a261b4e4b7bd7cb2cea24a212af040b1\AndroidManifest.xml:32:5-79
MERGED from [com.google.firebase:firebase-iid:12.0.1] C:\Users\AppCreate2\.gradle\caches\transforms-2\files-2.1\a261b4e4b7bd7cb2cea24a212af040b1\AndroidManifest.xml:32:5-79
	android:name
		ADDED from [com.onesignal:OneSignal:3.10.9] C:\Users\AppCreate2\.gradle\caches\transforms-2\files-2.1\5930e716dc13da12cc7e2f315b263b14\AndroidManifest.xml:12:22-76
uses-permission#com.google.android.c2dm.permission.RECEIVE
ADDED from [com.onesignal:OneSignal:3.10.9] C:\Users\AppCreate2\.gradle\caches\transforms-2\files-2.1\5930e716dc13da12cc7e2f315b263b14\AndroidManifest.xml:18:5-82
MERGED from [com.google.firebase:firebase-iid:12.0.1] C:\Users\AppCreate2\.gradle\caches\transforms-2\files-2.1\a261b4e4b7bd7cb2cea24a212af040b1\AndroidManifest.xml:26:5-82
MERGED from [com.google.firebase:firebase-iid:12.0.1] C:\Users\AppCreate2\.gradle\caches\transforms-2\files-2.1\a261b4e4b7bd7cb2cea24a212af040b1\AndroidManifest.xml:26:5-82
	android:name
		ADDED from [com.onesignal:OneSignal:3.10.9] C:\Users\AppCreate2\.gradle\caches\transforms-2\files-2.1\5930e716dc13da12cc7e2f315b263b14\AndroidManifest.xml:18:22-79
uses-permission#android.permission.WAKE_LOCK
ADDED from [com.onesignal:OneSignal:3.10.9] C:\Users\AppCreate2\.gradle\caches\transforms-2\files-2.1\5930e716dc13da12cc7e2f315b263b14\AndroidManifest.xml:19:5-68
MERGED from [com.google.firebase:firebase-iid:12.0.1] C:\Users\AppCreate2\.gradle\caches\transforms-2\files-2.1\a261b4e4b7bd7cb2cea24a212af040b1\AndroidManifest.xml:24:5-68
MERGED from [com.google.firebase:firebase-iid:12.0.1] C:\Users\AppCreate2\.gradle\caches\transforms-2\files-2.1\a261b4e4b7bd7cb2cea24a212af040b1\AndroidManifest.xml:24:5-68
	android:name
		ADDED from [com.onesignal:OneSignal:3.10.9] C:\Users\AppCreate2\.gradle\caches\transforms-2\files-2.1\5930e716dc13da12cc7e2f315b263b14\AndroidManifest.xml:19:22-65
uses-permission#android.permission.VIBRATE
ADDED from [com.onesignal:OneSignal:3.10.9] C:\Users\AppCreate2\.gradle\caches\transforms-2\files-2.1\5930e716dc13da12cc7e2f315b263b14\AndroidManifest.xml:24:5-66
	android:name
		ADDED from [com.onesignal:OneSignal:3.10.9] C:\Users\AppCreate2\.gradle\caches\transforms-2\files-2.1\5930e716dc13da12cc7e2f315b263b14\AndroidManifest.xml:24:22-63
uses-permission#android.permission.ACCESS_NETWORK_STATE
ADDED from [com.onesignal:OneSignal:3.10.9] C:\Users\AppCreate2\.gradle\caches\transforms-2\files-2.1\5930e716dc13da12cc7e2f315b263b14\AndroidManifest.xml:25:5-79
MERGED from [com.google.firebase:firebase-iid:12.0.1] C:\Users\AppCreate2\.gradle\caches\transforms-2\files-2.1\a261b4e4b7bd7cb2cea24a212af040b1\AndroidManifest.xml:22:5-79
MERGED from [com.google.firebase:firebase-iid:12.0.1] C:\Users\AppCreate2\.gradle\caches\transforms-2\files-2.1\a261b4e4b7bd7cb2cea24a212af040b1\AndroidManifest.xml:22:5-79
	android:name
		ADDED from [com.onesignal:OneSignal:3.10.9] C:\Users\AppCreate2\.gradle\caches\transforms-2\files-2.1\5930e716dc13da12cc7e2f315b263b14\AndroidManifest.xml:25:22-76
uses-permission#android.permission.RECEIVE_BOOT_COMPLETED
ADDED from [com.onesignal:OneSignal:3.10.9] C:\Users\AppCreate2\.gradle\caches\transforms-2\files-2.1\5930e716dc13da12cc7e2f315b263b14\AndroidManifest.xml:30:5-81
	android:name
		ADDED from [com.onesignal:OneSignal:3.10.9] C:\Users\AppCreate2\.gradle\caches\transforms-2\files-2.1\5930e716dc13da12cc7e2f315b263b14\AndroidManifest.xml:30:22-78
uses-permission#com.sec.android.provider.badge.permission.READ
ADDED from [com.onesignal:OneSignal:3.10.9] C:\Users\AppCreate2\.gradle\caches\transforms-2\files-2.1\5930e716dc13da12cc7e2f315b263b14\AndroidManifest.xml:32:5-86
	android:name
		ADDED from [com.onesignal:OneSignal:3.10.9] C:\Users\AppCreate2\.gradle\caches\transforms-2\files-2.1\5930e716dc13da12cc7e2f315b263b14\AndroidManifest.xml:32:22-83
uses-permission#com.sec.android.provider.badge.permission.WRITE
ADDED from [com.onesignal:OneSignal:3.10.9] C:\Users\AppCreate2\.gradle\caches\transforms-2\files-2.1\5930e716dc13da12cc7e2f315b263b14\AndroidManifest.xml:33:5-87
	android:name
		ADDED from [com.onesignal:OneSignal:3.10.9] C:\Users\AppCreate2\.gradle\caches\transforms-2\files-2.1\5930e716dc13da12cc7e2f315b263b14\AndroidManifest.xml:33:22-84
uses-permission#com.htc.launcher.permission.READ_SETTINGS
ADDED from [com.onesignal:OneSignal:3.10.9] C:\Users\AppCreate2\.gradle\caches\transforms-2\files-2.1\5930e716dc13da12cc7e2f315b263b14\AndroidManifest.xml:34:5-81
	android:name
		ADDED from [com.onesignal:OneSignal:3.10.9] C:\Users\AppCreate2\.gradle\caches\transforms-2\files-2.1\5930e716dc13da12cc7e2f315b263b14\AndroidManifest.xml:34:22-78
uses-permission#com.htc.launcher.permission.UPDATE_SHORTCUT
ADDED from [com.onesignal:OneSignal:3.10.9] C:\Users\AppCreate2\.gradle\caches\transforms-2\files-2.1\5930e716dc13da12cc7e2f315b263b14\AndroidManifest.xml:35:5-83
	android:name
		ADDED from [com.onesignal:OneSignal:3.10.9] C:\Users\AppCreate2\.gradle\caches\transforms-2\files-2.1\5930e716dc13da12cc7e2f315b263b14\AndroidManifest.xml:35:22-80
uses-permission#com.sonyericsson.home.permission.BROADCAST_BADGE
ADDED from [com.onesignal:OneSignal:3.10.9] C:\Users\AppCreate2\.gradle\caches\transforms-2\files-2.1\5930e716dc13da12cc7e2f315b263b14\AndroidManifest.xml:36:5-88
	android:name
		ADDED from [com.onesignal:OneSignal:3.10.9] C:\Users\AppCreate2\.gradle\caches\transforms-2\files-2.1\5930e716dc13da12cc7e2f315b263b14\AndroidManifest.xml:36:22-85
uses-permission#com.sonymobile.home.permission.PROVIDER_INSERT_BADGE
ADDED from [com.onesignal:OneSignal:3.10.9] C:\Users\AppCreate2\.gradle\caches\transforms-2\files-2.1\5930e716dc13da12cc7e2f315b263b14\AndroidManifest.xml:37:5-92
	android:name
		ADDED from [com.onesignal:OneSignal:3.10.9] C:\Users\AppCreate2\.gradle\caches\transforms-2\files-2.1\5930e716dc13da12cc7e2f315b263b14\AndroidManifest.xml:37:22-89
uses-permission#com.anddoes.launcher.permission.UPDATE_COUNT
ADDED from [com.onesignal:OneSignal:3.10.9] C:\Users\AppCreate2\.gradle\caches\transforms-2\files-2.1\5930e716dc13da12cc7e2f315b263b14\AndroidManifest.xml:38:5-84
	android:name
		ADDED from [com.onesignal:OneSignal:3.10.9] C:\Users\AppCreate2\.gradle\caches\transforms-2\files-2.1\5930e716dc13da12cc7e2f315b263b14\AndroidManifest.xml:38:22-81
uses-permission#com.majeur.launcher.permission.UPDATE_BADGE
ADDED from [com.onesignal:OneSignal:3.10.9] C:\Users\AppCreate2\.gradle\caches\transforms-2\files-2.1\5930e716dc13da12cc7e2f315b263b14\AndroidManifest.xml:39:5-83
	android:name
		ADDED from [com.onesignal:OneSignal:3.10.9] C:\Users\AppCreate2\.gradle\caches\transforms-2\files-2.1\5930e716dc13da12cc7e2f315b263b14\AndroidManifest.xml:39:22-80
uses-permission#com.huawei.android.launcher.permission.CHANGE_BADGE
ADDED from [com.onesignal:OneSignal:3.10.9] C:\Users\AppCreate2\.gradle\caches\transforms-2\files-2.1\5930e716dc13da12cc7e2f315b263b14\AndroidManifest.xml:40:5-91
	android:name
		ADDED from [com.onesignal:OneSignal:3.10.9] C:\Users\AppCreate2\.gradle\caches\transforms-2\files-2.1\5930e716dc13da12cc7e2f315b263b14\AndroidManifest.xml:40:22-88
uses-permission#com.huawei.android.launcher.permission.READ_SETTINGS
ADDED from [com.onesignal:OneSignal:3.10.9] C:\Users\AppCreate2\.gradle\caches\transforms-2\files-2.1\5930e716dc13da12cc7e2f315b263b14\AndroidManifest.xml:41:5-92
	android:name
		ADDED from [com.onesignal:OneSignal:3.10.9] C:\Users\AppCreate2\.gradle\caches\transforms-2\files-2.1\5930e716dc13da12cc7e2f315b263b14\AndroidManifest.xml:41:22-89
uses-permission#com.huawei.android.launcher.permission.WRITE_SETTINGS
ADDED from [com.onesignal:OneSignal:3.10.9] C:\Users\AppCreate2\.gradle\caches\transforms-2\files-2.1\5930e716dc13da12cc7e2f315b263b14\AndroidManifest.xml:42:5-93
	android:name
		ADDED from [com.onesignal:OneSignal:3.10.9] C:\Users\AppCreate2\.gradle\caches\transforms-2\files-2.1\5930e716dc13da12cc7e2f315b263b14\AndroidManifest.xml:42:22-90
uses-permission#android.permission.READ_APP_BADGE
ADDED from [com.onesignal:OneSignal:3.10.9] C:\Users\AppCreate2\.gradle\caches\transforms-2\files-2.1\5930e716dc13da12cc7e2f315b263b14\AndroidManifest.xml:43:5-73
	android:name
		ADDED from [com.onesignal:OneSignal:3.10.9] C:\Users\AppCreate2\.gradle\caches\transforms-2\files-2.1\5930e716dc13da12cc7e2f315b263b14\AndroidManifest.xml:43:22-70
uses-permission#com.oppo.launcher.permission.READ_SETTINGS
ADDED from [com.onesignal:OneSignal:3.10.9] C:\Users\AppCreate2\.gradle\caches\transforms-2\files-2.1\5930e716dc13da12cc7e2f315b263b14\AndroidManifest.xml:44:5-82
	android:name
		ADDED from [com.onesignal:OneSignal:3.10.9] C:\Users\AppCreate2\.gradle\caches\transforms-2\files-2.1\5930e716dc13da12cc7e2f315b263b14\AndroidManifest.xml:44:22-79
uses-permission#com.oppo.launcher.permission.WRITE_SETTINGS
ADDED from [com.onesignal:OneSignal:3.10.9] C:\Users\AppCreate2\.gradle\caches\transforms-2\files-2.1\5930e716dc13da12cc7e2f315b263b14\AndroidManifest.xml:45:5-83
	android:name
		ADDED from [com.onesignal:OneSignal:3.10.9] C:\Users\AppCreate2\.gradle\caches\transforms-2\files-2.1\5930e716dc13da12cc7e2f315b263b14\AndroidManifest.xml:45:22-80
uses-permission#me.everything.badger.permission.BADGE_COUNT_READ
ADDED from [com.onesignal:OneSignal:3.10.9] C:\Users\AppCreate2\.gradle\caches\transforms-2\files-2.1\5930e716dc13da12cc7e2f315b263b14\AndroidManifest.xml:46:5-88
	android:name
		ADDED from [com.onesignal:OneSignal:3.10.9] C:\Users\AppCreate2\.gradle\caches\transforms-2\files-2.1\5930e716dc13da12cc7e2f315b263b14\AndroidManifest.xml:46:22-85
uses-permission#me.everything.badger.permission.BADGE_COUNT_WRITE
ADDED from [com.onesignal:OneSignal:3.10.9] C:\Users\AppCreate2\.gradle\caches\transforms-2\files-2.1\5930e716dc13da12cc7e2f315b263b14\AndroidManifest.xml:47:5-89
	android:name
		ADDED from [com.onesignal:OneSignal:3.10.9] C:\Users\AppCreate2\.gradle\caches\transforms-2\files-2.1\5930e716dc13da12cc7e2f315b263b14\AndroidManifest.xml:47:22-86
meta-data#onesignal_app_id
ADDED from [com.onesignal:OneSignal:3.10.9] C:\Users\AppCreate2\.gradle\caches\transforms-2\files-2.1\5930e716dc13da12cc7e2f315b263b14\AndroidManifest.xml:50:9-52:51
	android:value
		ADDED from [com.onesignal:OneSignal:3.10.9] C:\Users\AppCreate2\.gradle\caches\transforms-2\files-2.1\5930e716dc13da12cc7e2f315b263b14\AndroidManifest.xml:52:13-48
	android:name
		ADDED from [com.onesignal:OneSignal:3.10.9] C:\Users\AppCreate2\.gradle\caches\transforms-2\files-2.1\5930e716dc13da12cc7e2f315b263b14\AndroidManifest.xml:51:13-44
meta-data#onesignal_google_project_number
ADDED from [com.onesignal:OneSignal:3.10.9] C:\Users\AppCreate2\.gradle\caches\transforms-2\files-2.1\5930e716dc13da12cc7e2f315b263b14\AndroidManifest.xml:54:9-56:70
	android:value
		ADDED from [com.onesignal:OneSignal:3.10.9] C:\Users\AppCreate2\.gradle\caches\transforms-2\files-2.1\5930e716dc13da12cc7e2f315b263b14\AndroidManifest.xml:56:13-67
	android:name
		ADDED from [com.onesignal:OneSignal:3.10.9] C:\Users\AppCreate2\.gradle\caches\transforms-2\files-2.1\5930e716dc13da12cc7e2f315b263b14\AndroidManifest.xml:55:13-59
receiver#com.onesignal.GcmBroadcastReceiver
ADDED from [com.onesignal:OneSignal:3.10.9] C:\Users\AppCreate2\.gradle\caches\transforms-2\files-2.1\5930e716dc13da12cc7e2f315b263b14\AndroidManifest.xml:58:9-68:20
	android:permission
		ADDED from [com.onesignal:OneSignal:3.10.9] C:\Users\AppCreate2\.gradle\caches\transforms-2\files-2.1\5930e716dc13da12cc7e2f315b263b14\AndroidManifest.xml:60:13-73
	android:name
		ADDED from [com.onesignal:OneSignal:3.10.9] C:\Users\AppCreate2\.gradle\caches\transforms-2\files-2.1\5930e716dc13da12cc7e2f315b263b14\AndroidManifest.xml:59:13-62
intent-filter#action:name:com.google.android.c2dm.intent.RECEIVE+category:name:${applicationId}
ADDED from [com.onesignal:OneSignal:3.10.9] C:\Users\AppCreate2\.gradle\caches\transforms-2\files-2.1\5930e716dc13da12cc7e2f315b263b14\AndroidManifest.xml:63:13-67:29
	android:priority
		ADDED from [com.onesignal:OneSignal:3.10.9] C:\Users\AppCreate2\.gradle\caches\transforms-2\files-2.1\5930e716dc13da12cc7e2f315b263b14\AndroidManifest.xml:63:28-50
intent-filter#action:name:com.google.android.c2dm.intent.RECEIVE+category:name:xyz.appmaker.rribqe
ADDED from [com.onesignal:OneSignal:3.10.9] C:\Users\AppCreate2\.gradle\caches\transforms-2\files-2.1\5930e716dc13da12cc7e2f315b263b14\AndroidManifest.xml:63:13-67:29
	android:priority
		ADDED from [com.onesignal:OneSignal:3.10.9] C:\Users\AppCreate2\.gradle\caches\transforms-2\files-2.1\5930e716dc13da12cc7e2f315b263b14\AndroidManifest.xml:63:28-50
action#com.google.android.c2dm.intent.RECEIVE
ADDED from [com.onesignal:OneSignal:3.10.9] C:\Users\AppCreate2\.gradle\caches\transforms-2\files-2.1\5930e716dc13da12cc7e2f315b263b14\AndroidManifest.xml:64:17-81
	android:name
		ADDED from [com.onesignal:OneSignal:3.10.9] C:\Users\AppCreate2\.gradle\caches\transforms-2\files-2.1\5930e716dc13da12cc7e2f315b263b14\AndroidManifest.xml:64:25-78
category#${applicationId}
ADDED from [com.onesignal:OneSignal:3.10.9] C:\Users\AppCreate2\.gradle\caches\transforms-2\files-2.1\5930e716dc13da12cc7e2f315b263b14\AndroidManifest.xml:66:17-61
	android:name
		ADDED from [com.onesignal:OneSignal:3.10.9] C:\Users\AppCreate2\.gradle\caches\transforms-2\files-2.1\5930e716dc13da12cc7e2f315b263b14\AndroidManifest.xml:66:27-58
category#xyz.appmaker.rribqe
ADDED from [com.onesignal:OneSignal:3.10.9] C:\Users\AppCreate2\.gradle\caches\transforms-2\files-2.1\5930e716dc13da12cc7e2f315b263b14\AndroidManifest.xml:66:17-61
	android:name
		ADDED from [com.onesignal:OneSignal:3.10.9] C:\Users\AppCreate2\.gradle\caches\transforms-2\files-2.1\5930e716dc13da12cc7e2f315b263b14\AndroidManifest.xml:66:27-58
receiver#com.onesignal.NotificationOpenedReceiver
ADDED from [com.onesignal:OneSignal:3.10.9] C:\Users\AppCreate2\.gradle\caches\transforms-2\files-2.1\5930e716dc13da12cc7e2f315b263b14\AndroidManifest.xml:69:9-77
	android:name
		ADDED from [com.onesignal:OneSignal:3.10.9] C:\Users\AppCreate2\.gradle\caches\transforms-2\files-2.1\5930e716dc13da12cc7e2f315b263b14\AndroidManifest.xml:69:19-74
service#com.onesignal.GcmIntentService
ADDED from [com.onesignal:OneSignal:3.10.9] C:\Users\AppCreate2\.gradle\caches\transforms-2\files-2.1\5930e716dc13da12cc7e2f315b263b14\AndroidManifest.xml:71:9-66
	android:name
		ADDED from [com.onesignal:OneSignal:3.10.9] C:\Users\AppCreate2\.gradle\caches\transforms-2\files-2.1\5930e716dc13da12cc7e2f315b263b14\AndroidManifest.xml:71:18-63
service#com.onesignal.GcmIntentJobService
ADDED from [com.onesignal:OneSignal:3.10.9] C:\Users\AppCreate2\.gradle\caches\transforms-2\files-2.1\5930e716dc13da12cc7e2f315b263b14\AndroidManifest.xml:72:9-74:72
	android:permission
		ADDED from [com.onesignal:OneSignal:3.10.9] C:\Users\AppCreate2\.gradle\caches\transforms-2\files-2.1\5930e716dc13da12cc7e2f315b263b14\AndroidManifest.xml:74:13-69
	android:name
		ADDED from [com.onesignal:OneSignal:3.10.9] C:\Users\AppCreate2\.gradle\caches\transforms-2\files-2.1\5930e716dc13da12cc7e2f315b263b14\AndroidManifest.xml:73:13-61
service#com.onesignal.RestoreJobService
ADDED from [com.onesignal:OneSignal:3.10.9] C:\Users\AppCreate2\.gradle\caches\transforms-2\files-2.1\5930e716dc13da12cc7e2f315b263b14\AndroidManifest.xml:75:9-77:72
	android:permission
		ADDED from [com.onesignal:OneSignal:3.10.9] C:\Users\AppCreate2\.gradle\caches\transforms-2\files-2.1\5930e716dc13da12cc7e2f315b263b14\AndroidManifest.xml:77:13-69
	android:name
		ADDED from [com.onesignal:OneSignal:3.10.9] C:\Users\AppCreate2\.gradle\caches\transforms-2\files-2.1\5930e716dc13da12cc7e2f315b263b14\AndroidManifest.xml:76:13-59
service#com.onesignal.RestoreKickoffJobService
ADDED from [com.onesignal:OneSignal:3.10.9] C:\Users\AppCreate2\.gradle\caches\transforms-2\files-2.1\5930e716dc13da12cc7e2f315b263b14\AndroidManifest.xml:78:9-80:72
	android:permission
		ADDED from [com.onesignal:OneSignal:3.10.9] C:\Users\AppCreate2\.gradle\caches\transforms-2\files-2.1\5930e716dc13da12cc7e2f315b263b14\AndroidManifest.xml:80:13-69
	android:name
		ADDED from [com.onesignal:OneSignal:3.10.9] C:\Users\AppCreate2\.gradle\caches\transforms-2\files-2.1\5930e716dc13da12cc7e2f315b263b14\AndroidManifest.xml:79:13-66
service#com.onesignal.SyncService
ADDED from [com.onesignal:OneSignal:3.10.9] C:\Users\AppCreate2\.gradle\caches\transforms-2\files-2.1\5930e716dc13da12cc7e2f315b263b14\AndroidManifest.xml:81:9-83:43
	android:stopWithTask
		ADDED from [com.onesignal:OneSignal:3.10.9] C:\Users\AppCreate2\.gradle\caches\transforms-2\files-2.1\5930e716dc13da12cc7e2f315b263b14\AndroidManifest.xml:83:13-40
	android:name
		ADDED from [com.onesignal:OneSignal:3.10.9] C:\Users\AppCreate2\.gradle\caches\transforms-2\files-2.1\5930e716dc13da12cc7e2f315b263b14\AndroidManifest.xml:82:13-53
service#com.onesignal.SyncJobService
ADDED from [com.onesignal:OneSignal:3.10.9] C:\Users\AppCreate2\.gradle\caches\transforms-2\files-2.1\5930e716dc13da12cc7e2f315b263b14\AndroidManifest.xml:84:9-86:72
	android:permission
		ADDED from [com.onesignal:OneSignal:3.10.9] C:\Users\AppCreate2\.gradle\caches\transforms-2\files-2.1\5930e716dc13da12cc7e2f315b263b14\AndroidManifest.xml:86:13-69
	android:name
		ADDED from [com.onesignal:OneSignal:3.10.9] C:\Users\AppCreate2\.gradle\caches\transforms-2\files-2.1\5930e716dc13da12cc7e2f315b263b14\AndroidManifest.xml:85:13-56
activity#com.onesignal.PermissionsActivity
ADDED from [com.onesignal:OneSignal:3.10.9] C:\Users\AppCreate2\.gradle\caches\transforms-2\files-2.1\5930e716dc13da12cc7e2f315b263b14\AndroidManifest.xml:88:9-90:75
	android:theme
		ADDED from [com.onesignal:OneSignal:3.10.9] C:\Users\AppCreate2\.gradle\caches\transforms-2\files-2.1\5930e716dc13da12cc7e2f315b263b14\AndroidManifest.xml:90:13-72
	android:name
		ADDED from [com.onesignal:OneSignal:3.10.9] C:\Users\AppCreate2\.gradle\caches\transforms-2\files-2.1\5930e716dc13da12cc7e2f315b263b14\AndroidManifest.xml:89:13-61
service#com.onesignal.NotificationRestoreService
ADDED from [com.onesignal:OneSignal:3.10.9] C:\Users\AppCreate2\.gradle\caches\transforms-2\files-2.1\5930e716dc13da12cc7e2f315b263b14\AndroidManifest.xml:92:9-76
	android:name
		ADDED from [com.onesignal:OneSignal:3.10.9] C:\Users\AppCreate2\.gradle\caches\transforms-2\files-2.1\5930e716dc13da12cc7e2f315b263b14\AndroidManifest.xml:92:18-73
receiver#com.onesignal.BootUpReceiver
ADDED from [com.onesignal:OneSignal:3.10.9] C:\Users\AppCreate2\.gradle\caches\transforms-2\files-2.1\5930e716dc13da12cc7e2f315b263b14\AndroidManifest.xml:94:9-99:20
	android:name
		ADDED from [com.onesignal:OneSignal:3.10.9] C:\Users\AppCreate2\.gradle\caches\transforms-2\files-2.1\5930e716dc13da12cc7e2f315b263b14\AndroidManifest.xml:94:19-62
intent-filter#action:name:android.intent.action.BOOT_COMPLETED+action:name:android.intent.action.QUICKBOOT_POWERON
ADDED from [com.onesignal:OneSignal:3.10.9] C:\Users\AppCreate2\.gradle\caches\transforms-2\files-2.1\5930e716dc13da12cc7e2f315b263b14\AndroidManifest.xml:95:13-98:29
action#android.intent.action.BOOT_COMPLETED
ADDED from [com.onesignal:OneSignal:3.10.9] C:\Users\AppCreate2\.gradle\caches\transforms-2\files-2.1\5930e716dc13da12cc7e2f315b263b14\AndroidManifest.xml:96:17-79
	android:name
		ADDED from [com.onesignal:OneSignal:3.10.9] C:\Users\AppCreate2\.gradle\caches\transforms-2\files-2.1\5930e716dc13da12cc7e2f315b263b14\AndroidManifest.xml:96:25-76
action#android.intent.action.QUICKBOOT_POWERON
ADDED from [com.onesignal:OneSignal:3.10.9] C:\Users\AppCreate2\.gradle\caches\transforms-2\files-2.1\5930e716dc13da12cc7e2f315b263b14\AndroidManifest.xml:97:17-82
	android:name
		ADDED from [com.onesignal:OneSignal:3.10.9] C:\Users\AppCreate2\.gradle\caches\transforms-2\files-2.1\5930e716dc13da12cc7e2f315b263b14\AndroidManifest.xml:97:25-79
receiver#com.onesignal.UpgradeReceiver
ADDED from [com.onesignal:OneSignal:3.10.9] C:\Users\AppCreate2\.gradle\caches\transforms-2\files-2.1\5930e716dc13da12cc7e2f315b263b14\AndroidManifest.xml:100:9-104:20
	android:name
		ADDED from [com.onesignal:OneSignal:3.10.9] C:\Users\AppCreate2\.gradle\caches\transforms-2\files-2.1\5930e716dc13da12cc7e2f315b263b14\AndroidManifest.xml:100:19-63
intent-filter#action:name:android.intent.action.MY_PACKAGE_REPLACED
ADDED from [com.onesignal:OneSignal:3.10.9] C:\Users\AppCreate2\.gradle\caches\transforms-2\files-2.1\5930e716dc13da12cc7e2f315b263b14\AndroidManifest.xml:101:13-103:29
action#android.intent.action.MY_PACKAGE_REPLACED
ADDED from [com.onesignal:OneSignal:3.10.9] C:\Users\AppCreate2\.gradle\caches\transforms-2\files-2.1\5930e716dc13da12cc7e2f315b263b14\AndroidManifest.xml:102:17-84
	android:name
		ADDED from [com.onesignal:OneSignal:3.10.9] C:\Users\AppCreate2\.gradle\caches\transforms-2\files-2.1\5930e716dc13da12cc7e2f315b263b14\AndroidManifest.xml:102:25-81
activity#com.facebook.FacebookActivity
ADDED from [com.facebook.android:facebook-common:5.0.1] C:\Users\AppCreate2\.gradle\caches\transforms-2\files-2.1\6cf26a39b9d5f518d298ba2789714ee1\AndroidManifest.xml:29:9-32:66
	android:configChanges
		ADDED from [com.facebook.android:facebook-common:5.0.1] C:\Users\AppCreate2\.gradle\caches\transforms-2\files-2.1\6cf26a39b9d5f518d298ba2789714ee1\AndroidManifest.xml:31:13-96
	android:theme
		ADDED from [com.facebook.android:facebook-common:5.0.1] C:\Users\AppCreate2\.gradle\caches\transforms-2\files-2.1\6cf26a39b9d5f518d298ba2789714ee1\AndroidManifest.xml:32:13-63
	android:name
		ADDED from [com.facebook.android:facebook-common:5.0.1] C:\Users\AppCreate2\.gradle\caches\transforms-2\files-2.1\6cf26a39b9d5f518d298ba2789714ee1\AndroidManifest.xml:30:13-57
activity#com.facebook.CustomTabMainActivity
ADDED from [com.facebook.android:facebook-common:5.0.1] C:\Users\AppCreate2\.gradle\caches\transforms-2\files-2.1\6cf26a39b9d5f518d298ba2789714ee1\AndroidManifest.xml:33:9-71
	android:name
		ADDED from [com.facebook.android:facebook-common:5.0.1] C:\Users\AppCreate2\.gradle\caches\transforms-2\files-2.1\6cf26a39b9d5f518d298ba2789714ee1\AndroidManifest.xml:33:19-68
activity#com.facebook.CustomTabActivity
ADDED from [com.facebook.android:facebook-common:5.0.1] C:\Users\AppCreate2\.gradle\caches\transforms-2\files-2.1\6cf26a39b9d5f518d298ba2789714ee1\AndroidManifest.xml:34:9-67
	android:name
		ADDED from [com.facebook.android:facebook-common:5.0.1] C:\Users\AppCreate2\.gradle\caches\transforms-2\files-2.1\6cf26a39b9d5f518d298ba2789714ee1\AndroidManifest.xml:34:19-64
provider#com.facebook.internal.FacebookInitProvider
ADDED from [com.facebook.android:facebook-core:5.0.1] C:\Users\AppCreate2\.gradle\caches\transforms-2\files-2.1\8e693a95e2537504235d21123968caa4\AndroidManifest.xml:39:9-42:40
	android:authorities
		ADDED from [com.facebook.android:facebook-core:5.0.1] C:\Users\AppCreate2\.gradle\caches\transforms-2\files-2.1\8e693a95e2537504235d21123968caa4\AndroidManifest.xml:41:13-72
	android:exported
		ADDED from [com.facebook.android:facebook-core:5.0.1] C:\Users\AppCreate2\.gradle\caches\transforms-2\files-2.1\8e693a95e2537504235d21123968caa4\AndroidManifest.xml:42:13-37
	android:name
		ADDED from [com.facebook.android:facebook-core:5.0.1] C:\Users\AppCreate2\.gradle\caches\transforms-2\files-2.1\8e693a95e2537504235d21123968caa4\AndroidManifest.xml:40:13-70
receiver#com.facebook.CurrentAccessTokenExpirationBroadcastReceiver
ADDED from [com.facebook.android:facebook-core:5.0.1] C:\Users\AppCreate2\.gradle\caches\transforms-2\files-2.1\8e693a95e2537504235d21123968caa4\AndroidManifest.xml:44:9-50:20
	android:exported
		ADDED from [com.facebook.android:facebook-core:5.0.1] C:\Users\AppCreate2\.gradle\caches\transforms-2\files-2.1\8e693a95e2537504235d21123968caa4\AndroidManifest.xml:46:13-37
	android:name
		ADDED from [com.facebook.android:facebook-core:5.0.1] C:\Users\AppCreate2\.gradle\caches\transforms-2\files-2.1\8e693a95e2537504235d21123968caa4\AndroidManifest.xml:45:13-86
intent-filter#action:name:com.facebook.sdk.ACTION_CURRENT_ACCESS_TOKEN_CHANGED
ADDED from [com.facebook.android:facebook-core:5.0.1] C:\Users\AppCreate2\.gradle\caches\transforms-2\files-2.1\8e693a95e2537504235d21123968caa4\AndroidManifest.xml:47:13-49:29
action#com.facebook.sdk.ACTION_CURRENT_ACCESS_TOKEN_CHANGED
ADDED from [com.facebook.android:facebook-core:5.0.1] C:\Users\AppCreate2\.gradle\caches\transforms-2\files-2.1\8e693a95e2537504235d21123968caa4\AndroidManifest.xml:48:17-95
	android:name
		ADDED from [com.facebook.android:facebook-core:5.0.1] C:\Users\AppCreate2\.gradle\caches\transforms-2\files-2.1\8e693a95e2537504235d21123968caa4\AndroidManifest.xml:48:25-92
receiver#com.facebook.CampaignTrackingReceiver
ADDED from [com.facebook.android:facebook-core:5.0.1] C:\Users\AppCreate2\.gradle\caches\transforms-2\files-2.1\8e693a95e2537504235d21123968caa4\AndroidManifest.xml:51:9-58:20
	android:exported
		ADDED from [com.facebook.android:facebook-core:5.0.1] C:\Users\AppCreate2\.gradle\caches\transforms-2\files-2.1\8e693a95e2537504235d21123968caa4\AndroidManifest.xml:53:13-36
	android:permission
		ADDED from [com.facebook.android:facebook-core:5.0.1] C:\Users\AppCreate2\.gradle\caches\transforms-2\files-2.1\8e693a95e2537504235d21123968caa4\AndroidManifest.xml:54:13-69
	android:name
		ADDED from [com.facebook.android:facebook-core:5.0.1] C:\Users\AppCreate2\.gradle\caches\transforms-2\files-2.1\8e693a95e2537504235d21123968caa4\AndroidManifest.xml:52:13-65
intent-filter#action:name:com.android.vending.INSTALL_REFERRER
ADDED from [com.facebook.android:facebook-core:5.0.1] C:\Users\AppCreate2\.gradle\caches\transforms-2\files-2.1\8e693a95e2537504235d21123968caa4\AndroidManifest.xml:55:13-57:29
action#com.android.vending.INSTALL_REFERRER
ADDED from [com.facebook.android:facebook-core:5.0.1] C:\Users\AppCreate2\.gradle\caches\transforms-2\files-2.1\8e693a95e2537504235d21123968caa4\AndroidManifest.xml:56:17-79
	android:name
		ADDED from [com.facebook.android:facebook-core:5.0.1] C:\Users\AppCreate2\.gradle\caches\transforms-2\files-2.1\8e693a95e2537504235d21123968caa4\AndroidManifest.xml:56:25-76
service#com.google.firebase.messaging.FirebaseMessagingService
ADDED from [com.google.firebase:firebase-messaging:12.0.1] C:\Users\AppCreate2\.gradle\caches\transforms-2\files-2.1\ab0ff6420981b83daeafca5db7fbdf76\AndroidManifest.xml:28:9-34:19
	android:exported
		ADDED from [com.google.firebase:firebase-messaging:12.0.1] C:\Users\AppCreate2\.gradle\caches\transforms-2\files-2.1\ab0ff6420981b83daeafca5db7fbdf76\AndroidManifest.xml:30:13-36
	android:name
		ADDED from [com.google.firebase:firebase-messaging:12.0.1] C:\Users\AppCreate2\.gradle\caches\transforms-2\files-2.1\ab0ff6420981b83daeafca5db7fbdf76\AndroidManifest.xml:29:13-82
intent-filter#action:name:com.google.firebase.MESSAGING_EVENT
ADDED from [com.google.firebase:firebase-messaging:12.0.1] C:\Users\AppCreate2\.gradle\caches\transforms-2\files-2.1\ab0ff6420981b83daeafca5db7fbdf76\AndroidManifest.xml:31:13-33:29
	android:priority
		ADDED from [com.google.firebase:firebase-messaging:12.0.1] C:\Users\AppCreate2\.gradle\caches\transforms-2\files-2.1\ab0ff6420981b83daeafca5db7fbdf76\AndroidManifest.xml:31:28-51
action#com.google.firebase.MESSAGING_EVENT
ADDED from [com.google.firebase:firebase-messaging:12.0.1] C:\Users\AppCreate2\.gradle\caches\transforms-2\files-2.1\ab0ff6420981b83daeafca5db7fbdf76\AndroidManifest.xml:32:17-78
	android:name
		ADDED from [com.google.firebase:firebase-messaging:12.0.1] C:\Users\AppCreate2\.gradle\caches\transforms-2\files-2.1\ab0ff6420981b83daeafca5db7fbdf76\AndroidManifest.xml:32:25-75
activity#com.google.android.gms.common.api.GoogleApiActivity
ADDED from [com.google.android.gms:play-services-base:12.0.1] C:\Users\AppCreate2\.gradle\caches\transforms-2\files-2.1\12c346d505adfb192c564b493ba30a9e\AndroidManifest.xml:23:9-26:75
	android:exported
		ADDED from [com.google.android.gms:play-services-base:12.0.1] C:\Users\AppCreate2\.gradle\caches\transforms-2\files-2.1\12c346d505adfb192c564b493ba30a9e\AndroidManifest.xml:25:13-37
	android:theme
		ADDED from [com.google.android.gms:play-services-base:12.0.1] C:\Users\AppCreate2\.gradle\caches\transforms-2\files-2.1\12c346d505adfb192c564b493ba30a9e\AndroidManifest.xml:26:13-72
	android:name
		ADDED from [com.google.android.gms:play-services-base:12.0.1] C:\Users\AppCreate2\.gradle\caches\transforms-2\files-2.1\12c346d505adfb192c564b493ba30a9e\AndroidManifest.xml:24:13-79
receiver#com.google.firebase.iid.FirebaseInstanceIdReceiver
ADDED from [com.google.firebase:firebase-iid:12.0.1] C:\Users\AppCreate2\.gradle\caches\transforms-2\files-2.1\a261b4e4b7bd7cb2cea24a212af040b1\AndroidManifest.xml:35:9-44:20
	android:exported
		ADDED from [com.google.firebase:firebase-iid:12.0.1] C:\Users\AppCreate2\.gradle\caches\transforms-2\files-2.1\a261b4e4b7bd7cb2cea24a212af040b1\AndroidManifest.xml:37:13-36
	android:permission
		ADDED from [com.google.firebase:firebase-iid:12.0.1] C:\Users\AppCreate2\.gradle\caches\transforms-2\files-2.1\a261b4e4b7bd7cb2cea24a212af040b1\AndroidManifest.xml:38:13-73
	android:name
		ADDED from [com.google.firebase:firebase-iid:12.0.1] C:\Users\AppCreate2\.gradle\caches\transforms-2\files-2.1\a261b4e4b7bd7cb2cea24a212af040b1\AndroidManifest.xml:36:13-78
service#com.google.firebase.iid.FirebaseInstanceIdService
ADDED from [com.google.firebase:firebase-iid:12.0.1] C:\Users\AppCreate2\.gradle\caches\transforms-2\files-2.1\a261b4e4b7bd7cb2cea24a212af040b1\AndroidManifest.xml:50:9-56:19
	android:exported
		ADDED from [com.google.firebase:firebase-iid:12.0.1] C:\Users\AppCreate2\.gradle\caches\transforms-2\files-2.1\a261b4e4b7bd7cb2cea24a212af040b1\AndroidManifest.xml:52:13-36
	android:name
		ADDED from [com.google.firebase:firebase-iid:12.0.1] C:\Users\AppCreate2\.gradle\caches\transforms-2\files-2.1\a261b4e4b7bd7cb2cea24a212af040b1\AndroidManifest.xml:51:13-77
intent-filter#action:name:com.google.firebase.INSTANCE_ID_EVENT
ADDED from [com.google.firebase:firebase-iid:12.0.1] C:\Users\AppCreate2\.gradle\caches\transforms-2\files-2.1\a261b4e4b7bd7cb2cea24a212af040b1\AndroidManifest.xml:53:13-55:29
	android:priority
		ADDED from [com.google.firebase:firebase-iid:12.0.1] C:\Users\AppCreate2\.gradle\caches\transforms-2\files-2.1\a261b4e4b7bd7cb2cea24a212af040b1\AndroidManifest.xml:53:28-51
action#com.google.firebase.INSTANCE_ID_EVENT
ADDED from [com.google.firebase:firebase-iid:12.0.1] C:\Users\AppCreate2\.gradle\caches\transforms-2\files-2.1\a261b4e4b7bd7cb2cea24a212af040b1\AndroidManifest.xml:54:17-80
	android:name
		ADDED from [com.google.firebase:firebase-iid:12.0.1] C:\Users\AppCreate2\.gradle\caches\transforms-2\files-2.1\a261b4e4b7bd7cb2cea24a212af040b1\AndroidManifest.xml:54:25-77
provider#com.google.firebase.provider.FirebaseInitProvider
ADDED from [com.google.firebase:firebase-common:12.0.1] C:\Users\AppCreate2\.gradle\caches\transforms-2\files-2.1\11565ee4541234765d6759e14171aa6c\AndroidManifest.xml:8:9-12:39
	android:authorities
		ADDED from [com.google.firebase:firebase-common:12.0.1] C:\Users\AppCreate2\.gradle\caches\transforms-2\files-2.1\11565ee4541234765d6759e14171aa6c\AndroidManifest.xml:10:13-72
	android:exported
		ADDED from [com.google.firebase:firebase-common:12.0.1] C:\Users\AppCreate2\.gradle\caches\transforms-2\files-2.1\11565ee4541234765d6759e14171aa6c\AndroidManifest.xml:11:13-37
	android:initOrder
		ADDED from [com.google.firebase:firebase-common:12.0.1] C:\Users\AppCreate2\.gradle\caches\transforms-2\files-2.1\11565ee4541234765d6759e14171aa6c\AndroidManifest.xml:12:13-36
	android:name
		ADDED from [com.google.firebase:firebase-common:12.0.1] C:\Users\AppCreate2\.gradle\caches\transforms-2\files-2.1\11565ee4541234765d6759e14171aa6c\AndroidManifest.xml:9:13-77
meta-data#com.google.android.gms.version
ADDED from [com.google.android.gms:play-services-basement:12.0.1] C:\Users\AppCreate2\.gradle\caches\transforms-2\files-2.1\fb55d954425ce843b8952ce936719d51\AndroidManifest.xml:23:9-25:69
	android:value
		ADDED from [com.google.android.gms:play-services-basement:12.0.1] C:\Users\AppCreate2\.gradle\caches\transforms-2\files-2.1\fb55d954425ce843b8952ce936719d51\AndroidManifest.xml:25:13-66
	android:name
		ADDED from [com.google.android.gms:play-services-basement:12.0.1] C:\Users\AppCreate2\.gradle\caches\transforms-2\files-2.1\fb55d954425ce843b8952ce936719d51\AndroidManifest.xml:24:13-58
